…
```
## # A tibble: 1 x 1
##   number_nas
##        <int>
## 1       7599
```

```r
deserts
```

```
## # A tibble: 34,786 x 13
##    record_id month   day  year plot_id species_id sex   hindfoot_length weight
##        <dbl> <dbl> <dbl> <dbl>   <dbl> <chr>      <chr>           <dbl>  <dbl>
##  1         1     7    16  1977       2 NL         M                  32     NA
##  2         2     7    16  1977       3 NL         M                  33     NA
##  3         3     7    16  1977       2 DM         F                  37     NA
##  4         4     7    16  1977       7 DM         M                  36     NA
##  5         5     7    16  1977       3 DM         M                  35     NA
##  6         6     7    16  1977       1 PF         M                  14     NA
##  7         7     7    16  1977       2 PE         F                  NA     NA
##  8         8     7    16  1977       1 DM         M                  37     NA
##  9         9     7    16  1977       1 DM         F                  34     NA
## 10        10     7    16  1977       6 PF         F                  20     NA
## # ... with 34,776 more rows, and 4 more variables: genus <chr>, species <chr>,
## #   taxa <chr>, plot_type <chr>
```
…
```r
deserts%>%
  count(species_id)%>%
  arrange(desc(n))
```

```
## # A tibble: 48 x 2
##    species_id     n
##    <chr>      <int>
##  1 DM         10596
##  2 PP          3123
##  3 DO          3027
##  4 PB          2891
##  5 RM          2609
##  6 DS          2504
##  7 OT          2249
##  8 PF          1597
##  9 PE          1299
## 10 NL          1252
## # ... with 38 more rows
```
…
5. What is the range of weight for each species included in the study? Remove any observations of weight that are NA so they do not show up in the plot.

```r
deserts%>%
  select(species, weight)%>%
  group_by(species)%>%
  arrange(desc(weight))
```

```
## # A tibble: 34,786 x 2
## # Groups:   species [40]
##    species  weight
##    <chr>     <dbl>
##  1 albigula    280
##  2 albigula    278
##  3 albigula    275
##  4 albigula    274
##  5 albigula    270
##  6 albigula    269
##  7 albigula    265
##  8 albigula    264
##  9 albigula    260
## 10 albigula    260
## # ... with 34,776 more rows
```
…
7. [Dipodomys merriami](https://en.wikipedia.org/wiki/Merriam's_kangaroo_rat) is the most frequently sampled animal in the study. How have the number of observations of this species changed over the years included in the study?

```r
dm <- deserts%>%
  filter(species_id =="DM")%>%
  group_by(year)%>%
  summarize(n_samples=n())
dm
```

```
## # A tibble: 26 x 2
##     year n_samples
##    <dbl>     <int>
##  1  1977       264
##  2  1978       389
##  3  1979       209
##  4  1980       493
##  5  1981       559
##  6  1982       609
##  7  1983       528
##  8  1984       396
##  9  1985       667
## 10  1986       406
## # ... with 16 more rows
```
…
9. Which two species have, on average, the highest weight? Once you have identified them, make a new column that is a ratio of `weight` to `hindfoot_length`. Make a plot that shows the range of this new ratio and fill by sex.

```r
deserts%>% #if new column, use mutate
  filter(weight!="NA")%>%
  group_by(species)%>%
  summarize(mean_weight=mean(weight))%>%
  arrange(desc(mean_weight))
```

```
## # A tibble: 22 x 2
##    species      mean_weight
##    <chr>              <dbl>
##  1 albigula           159. 
##  2 spectabilis        120. 
##  3 spilosoma           93.5
##  4 hispidus            65.6
##  5 fulviventer         58.9
##  6 ochrognathus        55.4
##  7 ordii               48.9
##  8 merriami            43.2
##  9 baileyi             31.7
## 10 leucogaster         31.6
## # ... with 12 more rows
```

```r
deserts%>%
  filter(weight!="NA" & hindfoot_length!="NA")%>%
  filter(species=="albigula" | species=="spectabilis")%>%
  mutate(ratio=weight/hindfoot_length)%>%
  select(species, sex, weight, hindfoot_length, ratio)
```

```
## # A tibble: 3,072 x 5
##    species     sex   weight hindfoot_length ratio
##    <chr>       <chr>  <dbl>           <dbl> <dbl>
##  1 spectabilis F        117              50  2.34
##  2 spectabilis F        121              51  2.37
##  3 spectabilis M        115              51  2.25
##  4 spectabilis F        120              48  2.5 
##  5 spectabilis F        118              48  2.46
##  6 spectabilis F        126              52  2.42
##  7 spectabilis M        132              50  2.64
##  8 spectabilis F        122              53  2.30
##  9 spectabilis F        107              48  2.23
## 10 spectabilis F        115              50  2.3 
## # ... with 3,062 more rows
```


```r
deserts
```

```
## # A tibble: 34,786 x 13
##    record_id month   day  year plot_id species_id sex   hindfoot_length weight
##        <dbl> <dbl> <dbl> <dbl>   <dbl> <chr>      <chr>           <dbl>  <dbl>
##  1         1     7    16  1977       2 NL         M                  32     NA
##  2         2     7    16  1977       3 NL         M                  33     NA
##  3         3     7    16  1977       2 DM         F                  37     NA
##  4         4     7    16  1977       7 DM         M                  36     NA
##  5         5     7    16  1977       3 DM         M                  35     NA
##  6         6     7    16  1977       1 PF         M                  14     NA
##  7         7     7    16  1977       2 PE         F                  NA     NA
##  8         8     7    16  1977       1 DM         M                  37     NA
##  9         9     7    16  1977       1 DM         F                  34     NA
## 10        10     7    16  1977       6 PF         F                  20     NA
## # ... with 34,776 more rows, and 4 more variables: genus <chr>, species <chr>,
## #   taxa <chr>, plot_type <chr>
```
…
