…
fisheries_tidy$catch <- as.numeric(fisheries_tidy$catch)
```

3. How many countries are represented in the data? Provide a count and list their names.

```r
fisheries_tidy%>%
  count(country, sort = T)
```

```
## # A tibble: 203 x 2
##    country                      n
##    <fct>                    <int>
##  1 United States of America 18080
##  2 Spain                    17482
##  3 Japan                    15429
##  4 Portugal                 11570
##  5 Korea, Republic of       10824
##  6 France                   10639
##  7 Taiwan Province of China  9927
##  8 Indonesia                 9274
##  9 Australia                 8183
## 10 Un. Sov. Soc. Rep.        7084
## # ... with 193 more rows
```
There are 204 countries in the data set.

4. Refocus the data only to include country, isscaap_taxonomic_group, asfis_species_name, asfis_species_number, year, catch.

```r
fisheries_tidy%>%
  select(country, isscaap_taxonomic_group, asfis_species_name, asfis_species_number, year, catch)
```

```
## # A tibble: 376,771 x 6
##    country isscaap_taxonomic_group asfis_species_n~ asfis_species_n~  year catch
##    <fct>   <chr>                   <fct>            <chr>            <dbl> <dbl>
##  1 Albania Sharks, rays, chimaeras Squatinidae      10903XXXXX        1995    NA
##  2 Albania Sharks, rays, chimaeras Squatinidae      10903XXXXX        1996    53
##  3 Albania Sharks, rays, chimaeras Squatinidae      10903XXXXX        1997    20
##  4 Albania Sharks, rays, chimaeras Squatinidae      10903XXXXX        1998    31
##  5 Albania Sharks, rays, chimaeras Squatinidae      10903XXXXX        1999    30
##  6 Albania Sharks, rays, chimaeras Squatinidae      10903XXXXX        2000    30
##  7 Albania Sharks, rays, chimaeras Squatinidae      10903XXXXX        2001    16
##  8 Albania Sharks, rays, chimaeras Squatinidae      10903XXXXX        2002    79
##  9 Albania Sharks, rays, chimaeras Squatinidae      10903XXXXX        2003     1
## 10 Albania Sharks, rays, chimaeras Squatinidae      10903XXXXX        2004     4
## # ... with 376,761 more rows
```

5. Based on the asfis_species_number, how many distinct fish species were caught as part of these data?

```r
fisheries_tidy%>%
  count(asfis_species_name, sort = T)
```

```
## # A tibble: 1,546 x 2
##    asfis_species_name     n
##    <fct>              <int>
##  1 Osteichthyes       16204
##  2 Thunnus albacares   6866
##  3 Elasmobranchii      6405
##  4 Katsuwonus pelamis  5785
##  5 Thunnus obesus      5341
##  6 Xiphias gladius     5143
##  7 Thunnus alalunga    4441
##  8 Mugilidae           4141
##  9 Rajiformes          3706
## 10 Mollusca            3516
## # ... with 1,536 more rows
```
1546 different fish species were collected.

6. Which country had the largest overall catch in the year 2000?

```r
fisheries_tidy%>%
  filter(year == "2000")%>%
  arrange(desc(catch))
```

```
## # A tibble: 8,793 x 10
##    country   common_name    isscaap_group_nu~ isscaap_taxonomi~ asfis_species_n~
##    <fct>     <chr>          <fct>             <chr>             <chr>           
##  1 China     Marine fishes~ 39                Marine fishes no~ 199XXXXXXX010   
##  2 Peru      Anchoveta(=Pe~ 35                Herrings, sardin~ 1210600208      
##  3 Russian ~ Alaska polloc~ 32                Cods, hakes, had~ 1480401601      
##  4 Viet Nam  Marine fishes~ 39                Marine fishes no~ 199XXXXXXX010   
##  5 Chile     Chilean jack ~ 37                Miscellaneous pe~ 1702300405      
##  6 China     Marine mollus~ 58                Miscellaneous ma~ 399XXXXXXX016   
##  7 China     Largehead hai~ 34                Miscellaneous de~ 1750600302      
##  8 United S~ Alaska polloc~ 32                Cods, hakes, had~ 1480401601      
##  9 China     Marine crusta~ 47                Miscellaneous ma~ 299XXXXXXX013   
## 10 Philippi~ Scads nei      37                Miscellaneous pe~ 17023043XX      
## # ... with 8,783 more rows, and 5 more variables: asfis_species_name <fct>,
## #   fao_major_fishing_area <fct>, measure <chr>, year <dbl>, catch <dbl>
```
China had the largest overall catch in the year 2000.

7. Which country caught the most sardines (_Sardina pilchardus_) between the years 1990-2000?

```r
fisheries_tidy%>%
  filter(between(year, 1990, 2000) & asfis_species_name == "Sardina pilchardus")%>%
  arrange(desc(catch))
```

```
## # A tibble: 336 x 10
##    country   common_name    isscaap_group_nu~ isscaap_taxonomi~ asfis_species_n~
##    <fct>     <chr>          <fct>             <chr>             <chr>           
##  1 Morocco   European pilc~ 35                Herrings, sardin~ 1210506401      
##  2 Morocco   European pilc~ 35                Herrings, sardin~ 1210506401      
##  3 Spain     European pilc~ 35                Herrings, sardin~ 1210506401      
##  4 Morocco   European pilc~ 35                Herrings, sardin~ 1210506401      
##  5 Morocco   European pilc~ 35                Herrings, sardin~ 1210506401      
##  6 Morocco   European pilc~ 35                Herrings, sardin~ 1210506401      
##  7 Morocco   European pilc~ 35                Herrings, sardin~ 1210506401      
##  8 Morocco   European pilc~ 35                Herrings, sardin~ 1210506401      
##  9 Russian ~ European pilc~ 35                Herrings, sardin~ 1210506401      
## 10 Russian ~ European pilc~ 35                Herrings, sardin~ 1210506401      
## # ... with 326 more rows, and 5 more variables: asfis_species_name <fct>,
## #   fao_major_fishing_area <fct>, measure <chr>, year <dbl>, catch <dbl>
```
Morocco caught the most number of Sardines between 1990 and 2000.

8. Which five countries caught the most cephalopods between 2008-2012?

```r
fisheries_tidy%>%
  filter(between(year, 2008, 2012) & isscaap_taxonomic_group == "Squids, cuttlefishes, octopuses")%>%
  arrange(desc(catch))
```

```
## # A tibble: 1,801 x 10
##    country    common_name    isscaap_group_n~ isscaap_taxonomi~ asfis_species_n~
##    <fct>      <chr>          <fct>            <chr>             <chr>           
##  1 Indonesia  Common squids~ 57               Squids, cuttlefi~ 32104001XX      
##  2 China      Various squid~ 57               Squids, cuttlefi~ 32105XXXXX036   
##  3 Chile      Jumbo flying ~ 57               Squids, cuttlefi~ 3210502301      
##  4 United St~ Opalescent in~ 57               Squids, cuttlefi~ 3210400103      
##  5 China      Various squid~ 57               Squids, cuttlefi~ 32105XXXXX036   
##  6 Japan      Japanese flyi~ 57               Squids, cuttlefi~ 3210505803      
##  7 China      Cuttlefish, b~ 57               Squids, cuttlefi~ 32102XXXXX026   
##  8 Peru       Jumbo flying ~ 57               Squids, cuttlefi~ 3210502301      
##  9 Korea, Re~ Argentine sho~ 57               Squids, cuttlefi~ 3210501003      
## 10 Peru       Jumbo flying ~ 57               Squids, cuttlefi~ 3210502301      
## # ... with 1,791 more rows, and 5 more variables: asfis_species_name <fct>,
## #   fao_major_fishing_area <fct>, measure <chr>, year <dbl>, catch <dbl>
```
The top 5 countries to catch cephalopods were Indonesia, China, Chile, USA, and Japan.

9. Which species had the highest catch total between 2008-2012? (hint: Osteichthyes is not a species)

```r
fisheries_tidy%>%
  filter(between(year, 2008, 2012))%>%
  arrange(desc(catch))
```

```
## # A tibble: 51,014 x 10
##    country   common_name    isscaap_group_nu~ isscaap_taxonomi~ asfis_species_n~
##    <fct>     <chr>          <fct>             <chr>             <chr>           
##  1 Viet Nam  Marine fishes~ 39                Marine fishes no~ 199XXXXXXX010   
##  2 Myanmar   Marine fishes~ 39                Marine fishes no~ 199XXXXXXX010   
##  3 Viet Nam  Marine fishes~ 39                Marine fishes no~ 199XXXXXXX010   
##  4 China     Largehead hai~ 34                Miscellaneous de~ 1750600302      
##  5 Russian ~ Alaska polloc~ 32                Cods, hakes, had~ 1480401601      
##  6 Peru      Anchoveta(=Pe~ 35                Herrings, sardin~ 1210600208      
##  7 Norway    Atlantic herr~ 35                Herrings, sardin~ 1210500105      
##  8 Norway    Atlantic herr~ 35                Herrings, sardin~ 1210500105      
##  9 Peru      Anchoveta(=Pe~ 35                Herrings, sardin~ 1210600208      
## 10 China     Largehead hai~ 34                Miscellaneous de~ 1750600302      
## # ... with 51,004 more rows, and 5 more variables: asfis_species_name <fct>,
## #   fao_major_fishing_area <fct>, measure <chr>, year <dbl>, catch <dbl>
```
…
