…
```r
population_long<-population%>%
  pivot_longer(-country,
               names_to="year",
               values_to="population_size")
population_long
```

```
## # A tibble: 58,695 x 3
##    country     year  population_size
##    <chr>       <chr>           <dbl>
##  1 Afghanistan 1800          3280000
##  2 Afghanistan 1801          3280000
##  3 Afghanistan 1802          3280000
##  4 Afghanistan 1803          3280000
##  5 Afghanistan 1804          3280000
##  6 Afghanistan 1805          3280000
##  7 Afghanistan 1806          3280000
##  8 Afghanistan 1807          3280000
##  9 Afghanistan 1808          3280000
## 10 Afghanistan 1809          3280000
## # ... with 58,685 more rows
```
…
```r
income_long<-income%>%
  pivot_longer(-country,
                names_to="year",
                values_to="income_per_person")
income_long
```

```
## # A tibble: 46,513 x 3
##    country     year  income_per_person
##    <chr>       <chr>             <dbl>
##  1 Afghanistan 1800                603
##  2 Afghanistan 1801                603
##  3 Afghanistan 1802                603
##  4 Afghanistan 1803                603
##  5 Afghanistan 1804                603
##  6 Afghanistan 1805                603
##  7 Afghanistan 1806                603
##  8 Afghanistan 1807                603
##  9 Afghanistan 1808                603
## 10 Afghanistan 1809                603
## # ... with 46,503 more rows
```
…
```
## # A tibble: 1 x 1
##   number_nas
##        <int>
## 1          0
```

```r
life_long
```

```
## # A tibble: 55,528 x 3
##    country     year  life_expectancy
##    <chr>       <chr>           <dbl>
##  1 Afghanistan 1800             28.2
##  2 Afghanistan 1801             28.2
##  3 Afghanistan 1802             28.2
##  4 Afghanistan 1803             28.2
##  5 Afghanistan 1804             28.2
##  6 Afghanistan 1805             28.2
##  7 Afghanistan 1806             28.1
##  8 Afghanistan 1807             28.1
##  9 Afghanistan 1808             28.1
## 10 Afghanistan 1809             28.1
## # ... with 55,518 more rows
```

2. (1 point) How many different countries are represented in the data? Provide the total number and their names. Since each data set includes different numbers of countries, you will need to do this for each one.  

```r
income%>%
  count(country)
```

```
## # A tibble: 193 x 2
##    country                 n
##    <chr>               <int>
##  1 Afghanistan             1
##  2 Albania                 1
##  3 Algeria                 1
##  4 Andorra                 1
##  5 Angola                  1
##  6 Antigua and Barbuda     1
##  7 Argentina               1
##  8 Armenia                 1
##  9 Australia               1
## 10 Austria                 1
## # ... with 183 more rows
```
…
```
## # A tibble: 1 x 1
##       n
##   <int>
## 1   193
```


```r
life%>%
  count(country)
```

```
## # A tibble: 187 x 2
##    country                 n
##    <chr>               <int>
##  1 Afghanistan             1
##  2 Albania                 1
##  3 Algeria                 1
##  4 Andorra                 1
##  5 Angola                  1
##  6 Antigua and Barbuda     1
##  7 Argentina               1
##  8 Armenia                 1
##  9 Australia               1
## 10 Austria                 1
## # ... with 177 more rows
```
…
```
## # A tibble: 1 x 1
##       n
##   <int>
## 1   187
```

```r
population%>%
  count(country)
```

```
## # A tibble: 195 x 2
##    country                 n
##    <chr>               <int>
##  1 Afghanistan             1
##  2 Albania                 1
##  3 Algeria                 1
##  4 Andorra                 1
##  5 Angola                  1
##  6 Antigua and Barbuda     1
##  7 Argentina               1
##  8 Armenia                 1
##  9 Australia               1
## 10 Austria                 1
## # ... with 185 more rows
```
…
5. (3 points) Make a plot that shows the change over the past 100 years for the country with the biggest improvement in life expectancy. Be sure to add appropriate aesthetics to make the plot clean and clear. Once you have made the plot, do a little internet searching and see if you can discover what historical event may have contributed to this remarkable change.  

```r
life_long
```

```
## # A tibble: 55,528 x 3
##    country     year  life_expectancy
##    <chr>       <chr>           <dbl>
##  1 Afghanistan 1800             28.2
##  2 Afghanistan 1801             28.2
##  3 Afghanistan 1802             28.2
##  4 Afghanistan 1803             28.2
##  5 Afghanistan 1804             28.2
##  6 Afghanistan 1805             28.2
##  7 Afghanistan 1806             28.1
##  8 Afghanistan 1807             28.1
##  9 Afghanistan 1808             28.1
## 10 Afghanistan 1809             28.1
## # ... with 55,518 more rows
```
…
```r
population_long
```

```
## # A tibble: 58,695 x 3
##    country     year  population_size
##    <chr>       <chr>           <dbl>
##  1 Afghanistan 1800          3280000
##  2 Afghanistan 1801          3280000
##  3 Afghanistan 1802          3280000
##  4 Afghanistan 1803          3280000
##  5 Afghanistan 1804          3280000
##  6 Afghanistan 1805          3280000
##  7 Afghanistan 1806          3280000
##  8 Afghanistan 1807          3280000
##  9 Afghanistan 1808          3280000
## 10 Afghanistan 1809          3280000
## # ... with 58,685 more rows
```
…
## Income

The units used for income are gross domestic product per person adjusted for differences in purchasing power in international dollars.

```r
income_long
```

```
## # A tibble: 46,513 x 3
##    country     year  income_per_person
##    <chr>       <chr>             <dbl>
##  1 Afghanistan 1800                603
##  2 Afghanistan 1801                603
##  3 Afghanistan 1802                603
##  4 Afghanistan 1803                603
##  5 Afghanistan 1804                603
##  6 Afghanistan 1805                603
##  7 Afghanistan 1806                603
##  8 Afghanistan 1807                603
##  9 Afghanistan 1808                603
## 10 Afghanistan 1809                603
## # ... with 46,503 more rows
```
…
life_100 <- life_long%>%
  filter(year>="1920" & year<="2020")

population_100<- population_long%>%
  filter(year>="1920" & year<="2020")

gapminder_join <- inner_join(life_100, population_100, by= c("country", "year"))
gapminder_join <- inner_join(gapminder_join, income_100, by= c("country", "year"))
gapminder_join
```

```
## # A tibble: 18,728 x 5
##    country     year  life_expectancy population_size income_per_person
##    <chr>       <chr>           <dbl>           <dbl>             <dbl>
##  1 Afghanistan 1920             30.6        10600000              1490
##  2 Afghanistan 1921             30.7        10500000              1520
##  3 Afghanistan 1922             30.8        10300000              1550
##  4 Afghanistan 1923             30.8         9710000              1570
##  5 Afghanistan 1924             30.9         9200000              1600
##  6 Afghanistan 1925             31           8720000              1630
##  7 Afghanistan 1926             31           8260000              1650
##  8 Afghanistan 1927             31.1         7830000              1680
##  9 Afghanistan 1928             31.1         7420000              1710
## 10 Afghanistan 1929             31.2         7100000              1740
## # ... with 18,718 more rows
```
…
