…
```r
grizzly
```

```
## # A tibble: 494 x 3
##    bear.id longitude latitude
##      <dbl>     <dbl>    <dbl>
##  1       7     -149.     62.7
##  2      57     -153.     58.4
##  3      69     -145.     62.4
##  4      75     -153.     59.9
##  5     104     -143.     61.1
##  6     108     -150.     62.9
##  7     115     -152.     68.0
##  8     116     -147.     62.6
##  9     125     -157.     60.2
## 10     135     -156.     58.9
## # ... with 484 more rows
```
…
```r
wolf
```

```
## # A tibble: 1,986 x 23
##    pop     year age.cat sex   color   lat  long habitat human pop.density
##    <chr>  <dbl> <chr>   <chr> <chr> <dbl> <dbl>   <dbl> <dbl>       <dbl>
##  1 AK.PEN  2006 S       F     G      57.0 -158.    254.  10.4           8
##  2 AK.PEN  2006 S       M     G      57.0 -158.    254.  10.4           8
##  3 AK.PEN  2006 A       F     G      57.0 -158.    254.  10.4           8
##  4 AK.PEN  2006 S       M     B      57.0 -158.    254.  10.4           8
##  5 AK.PEN  2006 A       M     B      57.0 -158.    254.  10.4           8
##  6 AK.PEN  2006 A       M     G      57.0 -158.    254.  10.4           8
##  7 AK.PEN  2006 A       F     G      57.0 -158.    254.  10.4           8
##  8 AK.PEN  2006 P       M     G      57.0 -158.    254.  10.4           8
##  9 AK.PEN  2006 S       F     G      57.0 -158.    254.  10.4           8
## 10 AK.PEN  2006 P       M     G      57.0 -158.    254.  10.4           8
## # ... with 1,976 more rows, and 13 more variables: pack.size <dbl>,
## #   standard.habitat <dbl>, standard.human <dbl>, standard.pop <dbl>,
## #   standard.packsize <dbl>, standard.latitude <dbl>, standard.longitude <dbl>,
## #   cav.binary <dbl>, cdv.binary <dbl>, cpv.binary <dbl>, chv.binary <dbl>,
## #   neo.binary <dbl>, toxo.binary <dbl>
```
…
```r
lower_wolf <- wolf%>%
  filter(pop=="MT" | pop=="YNP" | pop=="GTNP" | pop=="SNF" | pop=="MI")
lower_wolf
```

```
## # A tibble: 988 x 23
##    pop    year age.cat sex   color   lat  long habitat human pop.density
##    <chr> <dbl> <chr>   <chr> <chr> <dbl> <dbl>   <dbl> <dbl>       <dbl>
##  1 GTNP   2012 P       M     G      43.8 -111.  10375. 3924.        34.0
##  2 GTNP   2012 P       F     G      43.8 -111.  10375. 3924.        34.0
##  3 GTNP   2012 P       F     G      43.8 -111.  10375. 3924.        34.0
##  4 GTNP   2012 P       M     B      43.8 -111.  10375. 3924.        34.0
##  5 GTNP   2013 A       F     G      43.8 -111.  10375. 3924.        34.0
##  6 GTNP   2013 A       M     G      43.8 -111.  10375. 3924.        34.0
##  7 GTNP   2013 P       M     G      43.8 -111.  10375. 3924.        34.0
##  8 GTNP   2013 P       M     G      43.8 -111.  10375. 3924.        34.0
##  9 GTNP   2013 P       M     G      43.8 -111.  10375. 3924.        34.0
## 10 GTNP   2013 P       F     G      43.8 -111.  10375. 3924.        34.0
## # ... with 978 more rows, and 13 more variables: pack.size <dbl>,
## #   standard.habitat <dbl>, standard.human <dbl>, standard.pop <dbl>,
## #   standard.packsize <dbl>, standard.latitude <dbl>, standard.longitude <dbl>,
## #   cav.binary <dbl>, cdv.binary <dbl>, cpv.binary <dbl>, chv.binary <dbl>,
## #   neo.binary <dbl>, toxo.binary <dbl>
```
…
