…
```r
gapminder
```

```
## # A tibble: 1,704 x 6
##    country     continent  year lifeExp      pop gdpPercap
##    <fct>       <fct>     <int>   <dbl>    <int>     <dbl>
##  1 Afghanistan Asia       1952    28.8  8425333      779.
##  2 Afghanistan Asia       1957    30.3  9240934      821.
##  3 Afghanistan Asia       1962    32.0 10267083      853.
##  4 Afghanistan Asia       1967    34.0 11537966      836.
##  5 Afghanistan Asia       1972    36.1 13079460      740.
##  6 Afghanistan Asia       1977    38.4 14880372      786.
##  7 Afghanistan Asia       1982    39.9 12881816      978.
##  8 Afghanistan Asia       1987    40.8 13867957      852.
##  9 Afghanistan Asia       1992    41.7 16317921      649.
## 10 Afghanistan Asia       1997    41.8 22227415      635.
## # ... with 1,694 more rows
```
…
```r
gapminder%>%
  group_by(continent, year)%>%
  summarize(min = min(lifeExp),
            max = max(lifeExp),
            mean = mean(lifeExp))
```

```
## `summarise()` has grouped output by 'continent'. You can override using the
## `.groups` argument.
```

```
## # A tibble: 60 x 5
## # Groups:   continent [5]
##    continent  year   min   max  mean
##    <fct>     <int> <dbl> <dbl> <dbl>
##  1 Africa     1952  30    52.7  39.1
##  2 Africa     1957  31.6  58.1  41.3
##  3 Africa     1962  32.8  60.2  43.3
##  4 Africa     1967  34.1  61.6  45.3
##  5 Africa     1972  35.4  64.3  47.5
##  6 Africa     1977  36.8  67.1  49.6
##  7 Africa     1982  38.4  69.9  51.6
##  8 Africa     1987  39.9  71.9  53.3
##  9 Africa     1992  23.6  73.6  53.6
## 10 Africa     1997  36.1  74.8  53.6
## # ... with 50 more rows
```
…
**7. Which countries have had the largest population growth since 1952?**

```r
popgrowth <- gapminder%>%
  select(country, year, pop)%>%
  pivot_wider(names_from ="year",
              names_prefix="year_",
               values_from ="pop")%>%
  mutate(popgrow = year_2007-year_1952)%>%
  arrange(desc(popgrow))
popgrowth
```

```
## # A tibble: 142 x 14
##    country year_1952 year_1957 year_1962 year_1967 year_1972 year_1977 year_1982
##    <fct>       <int>     <int>     <int>     <int>     <int>     <int>     <int>
##  1 China   556263527 637408000 665770000 754550000 862030000 943455000    1.00e9
##  2 India   372000000 409000000 454000000 506000000 567000000 634000000    7.08e8
##  3 United~ 157553000 171984000 186538000 198712000 209896000 220239000    2.32e8
##  4 Indone~  82052000  90124000  99028000 109343000 121282000 136725000    1.53e8
##  5 Brazil   56602560  65551171  76039390  88049823 100840058 114313951    1.29e8
##  6 Pakist~  41346560  46679944  53100671  60641899  69325921  78152686    9.15e7
##  7 Bangla~  46886859  51365468  56839289  62821884  70759295  80428306    9.31e7
##  8 Nigeria  33119096  37173340  41871351  47287752  53740085  62209173    7.30e7
##  9 Mexico   30144317  35015548  41121485  47995559  55984294  63759976    7.16e7
## 10 Philip~  22438691  26072194  30325264  35356600  40850141  46850962    5.35e7
## # ... with 132 more rows, and 6 more variables: year_1987 <int>,
## #   year_1992 <int>, year_1997 <int>, year_2002 <int>, year_2007 <int>,
## #   popgrow <int>
```
…
